{
  "version": 1,
  "dependencies": {
    "native,Version=v0.0": {
      "Microsoft.JavaScript.Hermes": {
        "type": "Direct",
        "requested": "[0.1.18, )",
        "resolved": "0.1.18",
        "contentHash": "5K8rRihGwIs2XNOTP2Jsw3T6cegxCBQXcpPS4optONU/AmFElGAfnA6XBQJ4UqlCFCl9Nf9zQrgvCUPBWYHiag=="
      },
      "Microsoft.UI.Xaml": {
        "type": "Direct",
        "requested": "[2.8.0-prerelease.210927001, )",
        "resolved": "2.8.0-prerelease.210927001",
        "contentHash": "aLLGxL2xJ1xu0IbnLu944iiCMaSmpp1Q6zaciZJIytkuB6Cmqg5pRepyC+Y/WeDr1GqYcpgjWwCuSItlqvOErA==",
        "dependencies": {
          "Microsoft.Web.WebView2": "1.0.1018-prerelease"
        }
      },
      "Microsoft.Windows.CppWinRT": {
        "type": "Direct",
        "requested": "[2.0.230706.1, )",
        "resolved": "2.0.230706.1",
        "contentHash": "l0D7oCw/5X+xIKHqZTi62TtV+1qeSz7KVluNFdrJ9hXsst4ghvqQ/Yhura7JqRdZWBXAuDS0G0KwALptdoxweQ=="
      },
      "boost": {
        "type": "Transitive",
        "resolved": "1.76.0",
        "contentHash": "p+w3YvNdXL8Cu9Fzrmexssu0tZbWxuf6ywsQqHjDlKFE5ojXHof1HIyMC3zDLfLnh80dIeFcEUAuR2Asg/XHRA=="
      },
      "Microsoft.Web.WebView2": {
        "type": "Transitive",
        "resolved": "1.0.1018-prerelease",
        "contentHash": "AJ3khLGYmYJwFZ2OidIw5VU6MZktG5IUMKqIeNzypyFsT0Rhnf8CElc+u6nEuWq5Pv+CwBhx9aY7ekP0SXCfmw=="
      },
      "common": {
        "type": "Project",
        "dependencies": {
          "boost": "[1.76.0, )"
        }
      },
      "fmt": {
        "type": "Project"
      },
      "folly": {
        "type": "Project",
        "dependencies": {
          "boost": "[1.76.0, )",
          "fmt": "[1.0.0, )"
        }
      },
      "microsoft.reactnative": {
        "type": "Project",
        "dependencies": {
          "Common": "[1.0.0, )",
          "Folly": "[1.0.0, )",
          "Microsoft.JavaScript.Hermes": "[0.1.18, )",
          "Microsoft.UI.Xaml": "[2.8.0-prerelease.210927001, )",
          "ReactCommon": "[1.0.0, )",
          "boost": "[1.76.0, )"
        }
      },
      "reactcommon": {
        "type": "Project",
        "dependencies": {
          "Folly": "[1.0.0, )",
          "boost": "[1.76.0, )"
        }
      },
      "reactnativefs": {
        "type": "Project",
        "dependencies": {
          "Microsoft.ReactNative": "[1.0.0, )",
          "Microsoft.UI.Xaml": "[2.8.0-prerelease.210927001, )"
        }
      },
      "reactnativestaticserver": {
        "type": "Project",
        "dependencies": {
          "Microsoft.ReactNative": "[1.0.0, )",
          "Microsoft.UI.Xaml": "[2.8.0-prerelease.210927001, )"
        }
      },
      "reactnativewebview": {
        "type": "Project",
        "dependencies": {
          "Microsoft.ReactNative": "[1.0.0, )",
          "Microsoft.UI.Xaml": "[2.8.0-prerelease.210927001, )"
        }
      }
    },
    "native,Version=v0.0/win10-arm": {
      "Microsoft.UI.Xaml": {
        "type": "Direct",
        "requested": "[2.8.0-prerelease.210927001, )",
        "resolved": "2.8.0-prerelease.210927001",
        "contentHash": "aLLGxL2xJ1xu0IbnLu944iiCMaSmpp1Q6zaciZJIytkuB6Cmqg5pRepyC+Y/WeDr1GqYcpgjWwCuSItlqvOErA==",
        "dependencies": {
          "Microsoft.Web.WebView2": "1.0.1018-prerelease"
        }
      },
      "Microsoft.Web.WebView2": {
        "type": "Transitive",
        "resolved": "1.0.1018-prerelease",
        "contentHash": "AJ3khLGYmYJwFZ2OidIw5VU6MZktG5IUMKqIeNzypyFsT0Rhnf8CElc+u6nEuWq5Pv+CwBhx9aY7ekP0SXCfmw=="
      }
    },
    "native,Version=v0.0/win10-arm-aot": {
      "Microsoft.UI.Xaml": {
        "type": "Direct",
        "requested": "[2.8.0-prerelease.210927001, )",
        "resolved": "2.8.0-prerelease.210927001",
        "contentHash": "aLLGxL2xJ1xu0IbnLu944iiCMaSmpp1Q6zaciZJIytkuB6Cmqg5pRepyC+Y/WeDr1GqYcpgjWwCuSItlqvOErA==",
        "dependencies": {
          "Microsoft.Web.WebView2": "1.0.1018-prerelease"
        }
      },
      "Microsoft.Web.WebView2": {
        "type": "Transitive",
        "resolved": "1.0.1018-prerelease",
        "contentHash": "AJ3khLGYmYJwFZ2OidIw5VU6MZktG5IUMKqIeNzypyFsT0Rhnf8CElc+u6nEuWq5Pv+CwBhx9aY7ekP0SXCfmw=="
      }
    },
    "native,Version=v0.0/win10-arm64-aot": {
      "Microsoft.UI.Xaml": {
        "type": "Direct",
        "requested": "[2.8.0-prerelease.210927001, )",
        "resolved": "2.8.0-prerelease.210927001",
        "contentHash": "aLLGxL2xJ1xu0IbnLu944iiCMaSmpp1Q6zaciZJIytkuB6Cmqg5pRepyC+Y/WeDr1GqYcpgjWwCuSItlqvOErA==",
        "dependencies": {
          "Microsoft.Web.WebView2": "1.0.1018-prerelease"
        }
      },
      "Microsoft.Web.WebView2": {
        "type": "Transitive",
        "resolved": "1.0.1018-prerelease",
        "contentHash": "AJ3khLGYmYJwFZ2OidIw5VU6MZktG5IUMKqIeNzypyFsT0Rhnf8CElc+u6nEuWq5Pv+CwBhx9aY7ekP0SXCfmw=="
      }
    },
    "native,Version=v0.0/win10-x64": {
      "Microsoft.UI.Xaml": {
        "type": "Direct",
        "requested": "[2.8.0-prerelease.210927001, )",
        "resolved": "2.8.0-prerelease.210927001",
        "contentHash": "aLLGxL2xJ1xu0IbnLu944iiCMaSmpp1Q6zaciZJIytkuB6Cmqg5pRepyC+Y/WeDr1GqYcpgjWwCuSItlqvOErA==",
        "dependencies": {
          "Microsoft.Web.WebView2": "1.0.1018-prerelease"
        }
      },
      "Microsoft.Web.WebView2": {
        "type": "Transitive",
        "resolved": "1.0.1018-prerelease",
        "contentHash": "AJ3khLGYmYJwFZ2OidIw5VU6MZktG5IUMKqIeNzypyFsT0Rhnf8CElc+u6nEuWq5Pv+CwBhx9aY7ekP0SXCfmw=="
      }
    },
    "native,Version=v0.0/win10-x64-aot": {
      "Microsoft.UI.Xaml": {
        "type": "Direct",
        "requested": "[2.8.0-prerelease.210927001, )",
        "resolved": "2.8.0-prerelease.210927001",
        "contentHash": "aLLGxL2xJ1xu0IbnLu944iiCMaSmpp1Q6zaciZJIytkuB6Cmqg5pRepyC+Y/WeDr1GqYcpgjWwCuSItlqvOErA==",
        "dependencies": {
          "Microsoft.Web.WebView2": "1.0.1018-prerelease"
        }
      },
      "Microsoft.Web.WebView2": {
        "type": "Transitive",
        "resolved": "1.0.1018-prerelease",
        "contentHash": "AJ3khLGYmYJwFZ2OidIw5VU6MZktG5IUMKqIeNzypyFsT0Rhnf8CElc+u6nEuWq5Pv+CwBhx9aY7ekP0SXCfmw=="
      }
    },
    "native,Version=v0.0/win10-x86": {
      "Microsoft.UI.Xaml": {
        "type": "Direct",
        "requested": "[2.8.0-prerelease.210927001, )",
        "resolved": "2.8.0-prerelease.210927001",
        "contentHash": "aLLGxL2xJ1xu0IbnLu944iiCMaSmpp1Q6zaciZJIytkuB6Cmqg5pRepyC+Y/WeDr1GqYcpgjWwCuSItlqvOErA==",
        "dependencies": {
          "Microsoft.Web.WebView2": "1.0.1018-prerelease"
        }
      },
      "Microsoft.Web.WebView2": {
        "type": "Transitive",
        "resolved": "1.0.1018-prerelease",
        "contentHash": "AJ3khLGYmYJwFZ2OidIw5VU6MZktG5IUMKqIeNzypyFsT0Rhnf8CElc+u6nEuWq5Pv+CwBhx9aY7ekP0SXCfmw=="
      }
    },
    "native,Version=v0.0/win10-x86-aot": {
      "Microsoft.UI.Xaml": {
        "type": "Direct",
        "requested": "[2.8.0-prerelease.210927001, )",
        "resolved": "2.8.0-prerelease.210927001",
        "contentHash": "aLLGxL2xJ1xu0IbnLu944iiCMaSmpp1Q6zaciZJIytkuB6Cmqg5pRepyC+Y/WeDr1GqYcpgjWwCuSItlqvOErA==",
        "dependencies": {
          "Microsoft.Web.WebView2": "1.0.1018-prerelease"
        }
      },
      "Microsoft.Web.WebView2": {
        "type": "Transitive",
        "resolved": "1.0.1018-prerelease",
        "contentHash": "AJ3khLGYmYJwFZ2OidIw5VU6MZktG5IUMKqIeNzypyFsT0Rhnf8CElc+u6nEuWq5Pv+CwBhx9aY7ekP0SXCfmw=="
      }
    }
  }
}